\relax 
\catcode `"\active 
\select@language{polish}
\@writefile{toc}{\select@language{polish}}
\@writefile{lof}{\select@language{polish}}
\@writefile{lot}{\select@language{polish}}
\@writefile{toc}{\contentsline {section}{\numberline {1}Opis u\IeC {\.z}ytych metod i funkcje}{1}}
\@writefile{toc}{\contentsline {section}{\numberline {2}Instrukcja obs\IeC {\l }ugi}{1}}
\@writefile{toc}{\contentsline {subsection}{\numberline {2.1}Wymagania}{1}}
\@writefile{toc}{\contentsline {subsection}{\numberline {2.2}Kompilacja}{2}}
\@writefile{toc}{\contentsline {subsection}{\numberline {2.3}Uzycie programu}{2}}
\@writefile{toc}{\contentsline {section}{\numberline {3}Wyniki Eksperymentalne}{2}}
